// Jest Snapshot v1, https://goo.gl/fbAQLP

exports[`EditorWrapper renders correctly 1`] = `
<EditorWrapper
  currentLanguage="en"
  languageList={
    Array [
      "en",
      "de",
    ]
  }
  onChangeLanguage={[MockFunction]}
>
  <div
    className="i18next-tui-editor"
  >
    <div
      className="row"
    >
      <div
        className="title"
      >
        Translation:
        <select
          defaultValue="en"
          onChange={[Function]}
        >
          <option
            key="en"
            value="en"
          >
            en
          </option>
          <option
            key="de"
            value="de"
          >
            de
          </option>
        </select>
      </div>
      <div
        className="box"
      >
        <span />
      </div>
    </div>
  </div>
</EditorWrapper>
`;
